xof 0303txt 0032

// Generated by 3D Rad Exporter plugin for Google SketchUp - http://www.3drad.com

template Header {
<3D82AB43-62DA-11cf-AB39-0020AF71E433>
WORD major;
WORD minor;
DWORD flags;
}
template Vector {
<3D82AB5E-62DA-11cf-AB39-0020AF71E433>
FLOAT x;
FLOAT y;
FLOAT z;
}
template Coords2d {
<F6F23F44-7686-11cf-8F52-0040333594A3>
FLOAT u;
FLOAT v;
}
template Matrix4x4 {
<F6F23F45-7686-11cf-8F52-0040333594A3>
array FLOAT matrix[16];
}
template ColorRGBA {
<35FF44E0-6C7C-11cf-8F52-0040333594A3>
FLOAT red;
FLOAT green;
FLOAT blue;
FLOAT alpha;
}
template ColorRGB {
<D3E16E81-7835-11cf-8F52-0040333594A3>
FLOAT red;
FLOAT green;
FLOAT blue;
}
template IndexedColor {
<1630B820-7842-11cf-8F52-0040333594A3>
DWORD index;
ColorRGBA indexColor;
}
template Boolean {
<4885AE61-78E8-11cf-8F52-0040333594A3>
WORD truefalse;
}
template Boolean2d {
<4885AE63-78E8-11cf-8F52-0040333594A3>
Boolean u;
Boolean v;
}
template MaterialWrap {
<4885AE60-78E8-11cf-8F52-0040333594A3>
Boolean u;
Boolean v;
}
template TextureFilename {
<A42790E1-7810-11cf-8F52-0040333594A3>
STRING filename;
}
template Material {
<3D82AB4D-62DA-11cf-AB39-0020AF71E433>
ColorRGBA faceColor;
FLOAT power;
ColorRGB specularColor;
ColorRGB emissiveColor;
[...]
}
template MeshFace {
<3D82AB5F-62DA-11cf-AB39-0020AF71E433>
DWORD nFaceVertexIndices;
array DWORD faceVertexIndices[nFaceVertexIndices];
}
template MeshFaceWraps {
<4885AE62-78E8-11cf-8F52-0040333594A3>
DWORD nFaceWrapValues;
Boolean2d faceWrapValues;
}
template MeshTextureCoords {
<F6F23F40-7686-11cf-8F52-0040333594A3>
DWORD nTextureCoords;
array Coords2d textureCoords[nTextureCoords];
}
template MeshMaterialList {
<F6F23F42-7686-11cf-8F52-0040333594A3>
DWORD nMaterials;
DWORD nFaceIndexes;
array DWORD faceIndexes[nFaceIndexes];
[Material]
}
template MeshNormals {
<F6F23F43-7686-11cf-8F52-0040333594A3>
DWORD nNormals;
array Vector normals[nNormals];
DWORD nFaceNormals;
array MeshFace faceNormals[nFaceNormals];
}
template MeshVertexColors {
<1630B821-7842-11cf-8F52-0040333594A3>
DWORD nVertexColors;
array IndexedColor vertexColors[nVertexColors];
}
template Mesh {
<3D82AB44-62DA-11cf-AB39-0020AF71E433>
DWORD nVertices;
array Vector vertices[nVertices];
DWORD nFaces;
array MeshFace faces[nFaces];
[...]
}
template FrameTransformMatrix {
<F6F23F41-7686-11cf-8F52-0040333594A3>
Matrix4x4 frameMatrix;
}
template Frame {
<3D82AB46-62DA-11cf-AB39-0020AF71E433>
[...]
}
template XSkinMeshHeader {
<3cf169ce-ff7c-44ab-93c0-f78f62d172e2>
WORD nMaxSkinWeightsPerVertex;
WORD nMaxSkinWeightsPerFace;
WORD nBones;
}
template VertexDuplicationIndices {
<b8d65549-d7c9-4995-89cf-53a9a8b031e3>
DWORD nIndices;
DWORD nOriginalVertices;
array DWORD indices[nIndices];
}
template SkinWeights {
<6f0d123b-bad2-4167-a0d0-80224f25fabb>
STRING transformNodeName;
DWORD nWeights;
array DWORD vertexIndices[nWeights];
array FLOAT weights[nWeights];
Matrix4x4 matrixOffset;
}
Frame RAD_SCENE_ROOT {
FrameTransformMatrix {
1.000000,0.000000,0.000000,0.000000,0.000000,1.000000,0.000000,0.000000,0.000000,0.000000,1.000000,0.000000,0.000000,0.000000,0.000000,1.000000;;
}
Frame RAD_FRAME {
FrameTransformMatrix {
1.000000,0.000000,0.000000,0.000000,0.000000,1.000000,0.000000,0.000000,0.000000,0.000000,1.000000,0.000000,0.000000,0.000000,0.000000,1.000000;;
}
Mesh RAD_MESH {
224;
-52.171159;3.930297;19.999989;,
-52.171159;-16.069693;0.000000;,
-52.171159;3.930297;0.000000;,
-52.171159;-16.069693;19.999989;,
-32.171170;3.930297;0.000000;,
-52.171159;-16.069693;0.000000;,
-32.171170;-16.069693;0.000000;,
-52.171159;3.930297;0.000000;,
-32.171170;3.930297;0.000000;,
-52.171159;3.930297;19.999989;,
-52.171159;3.930297;0.000000;,
-32.171170;3.930297;19.999989;,
-52.171159;3.930297;19.999989;,
-32.171170;-16.069693;19.999989;,
-52.171159;-16.069693;19.999989;,
-32.171170;3.930297;19.999989;,
-32.171170;-16.069693;19.999989;,
-52.171159;-16.069693;0.000000;,
-52.171159;-16.069693;19.999989;,
-32.171170;-16.069693;0.000000;,
-32.171170;-16.069693;19.999989;,
-32.171170;3.930297;0.000000;,
-32.171170;-16.069693;0.000000;,
-32.171170;3.930297;19.999989;,
47.139683;7.019624;57.306346;,
27.139693;-39.870350;57.306346;,
47.139683;-39.870350;57.306346;,
27.139693;7.019624;57.306346;,
47.139683;-39.870350;77.306335;,
27.139693;-39.870350;57.306346;,
27.139693;-39.870350;77.306335;,
47.139683;-39.870350;57.306346;,
27.139693;-39.870350;77.306335;,
47.139683;7.019624;77.306335;,
47.139683;-39.870350;77.306335;,
27.139693;7.019624;77.306335;,
47.139683;7.019624;57.306346;,
27.139693;7.019624;77.306335;,
27.139693;7.019624;57.306346;,
47.139683;7.019624;77.306335;,
27.139693;7.019624;77.306335;,
27.139693;-39.870350;57.306346;,
27.139693;7.019624;57.306346;,
27.139693;-39.870350;77.306335;,
47.139683;-39.870350;77.306335;,
47.139683;7.019624;57.306346;,
47.139683;-39.870350;57.306346;,
47.139683;7.019624;77.306335;,
-55.008299;19.999989;139.001926;,
-26.778315;0.000000;139.001926;,
-55.008299;0.000000;139.001926;,
-26.778315;19.999989;139.001926;,
-55.008299;19.999989;139.001926;,
-55.008299;0.000000;66.931965;,
-55.008299;19.999989;66.931965;,
-55.008299;0.000000;139.001926;,
-26.778315;0.000000;139.001926;,
-55.008299;0.000000;66.931965;,
-55.008299;0.000000;139.001926;,
-26.778315;0.000000;66.931965;,
-26.778315;19.999989;66.931965;,
-55.008299;19.999989;139.001926;,
-55.008299;19.999989;66.931965;,
-26.778315;19.999989;139.001926;,
-26.778315;19.999989;66.931965;,
-55.008299;0.000000;66.931965;,
-26.778315;0.000000;66.931965;,
-55.008299;19.999989;66.931965;,
-26.778315;0.000000;139.001926;,
-26.778315;19.999989;66.931965;,
-26.778315;0.000000;66.931965;,
-26.778315;19.999989;139.001926;,
-31.890399;-31.485762;257.935706;,
-1.732981;-19.837198;237.935717;,
-14.686872;-41.685676;257.935706;,
-18.936507;-9.637284;237.935717;,
-31.890399;-31.485762;257.935706;,
-29.136422;-26.840810;237.935717;,
-18.936507;-9.637284;237.935717;,
-42.090313;-48.689288;257.935706;,
-11.932896;-37.040724;237.935717;,
-42.090313;-48.689288;257.935706;,
-24.886787;-58.889203;257.935706;,
-29.136422;-26.840810;237.935717;,
-1.732981;-19.837198;237.935717;,
-29.136422;-26.840810;237.935717;,
-11.932896;-37.040724;237.935717;,
-18.936507;-9.637284;237.935717;,
-42.090313;-48.689288;257.935706;,
-14.686872;-41.685676;257.935706;,
-24.886787;-58.889203;257.935706;,
-31.890399;-31.485762;257.935706;,
-24.886787;-58.889203;257.935706;,
-1.732981;-19.837198;237.935717;,
-11.932896;-37.040724;237.935717;,
-14.686872;-41.685676;257.935706;,
-8.294293;19.999989;288.040637;,
-71.292810;0.000000;288.040637;,
-8.294293;0.000000;288.040637;,
-71.292810;19.999989;288.040637;,
-71.292810;19.999989;308.040626;,
-71.292810;0.000000;288.040637;,
-71.292810;19.999989;288.040637;,
-71.292810;0.000000;308.040626;,
-8.294293;19.999989;288.040637;,
-71.292810;19.999989;308.040626;,
-71.292810;19.999989;288.040637;,
-8.294293;19.999989;308.040626;,
-71.292810;19.999989;308.040626;,
-8.294293;0.000000;308.040626;,
-71.292810;0.000000;308.040626;,
-8.294293;19.999989;308.040626;,
-8.294293;0.000000;308.040626;,
-71.292810;0.000000;288.040637;,
-71.292810;0.000000;308.040626;,
-8.294293;0.000000;288.040637;,
-8.294293;0.000000;308.040626;,
-8.294293;19.999989;288.040637;,
-8.294293;0.000000;288.040637;,
-8.294293;19.999989;308.040626;,
19.999989;-18.798354;166.114885;,
-23.749987;-38.798343;166.114885;,
19.999989;-38.798343;166.114885;,
-23.749987;-18.798354;166.114885;,
-23.749987;-18.798354;186.114875;,
-23.749987;-38.798343;166.114885;,
-23.749987;-18.798354;166.114885;,
-23.749987;-38.798343;186.114875;,
19.999989;-18.798354;166.114885;,
-23.749987;-18.798354;186.114875;,
-23.749987;-18.798354;166.114885;,
19.999989;-18.798354;186.114875;,
-23.749987;-18.798354;186.114875;,
19.999989;-38.798343;186.114875;,
-23.749987;-38.798343;186.114875;,
19.999989;-18.798354;186.114875;,
19.999989;-38.798343;186.114875;,
-23.749987;-38.798343;166.114885;,
-23.749987;-38.798343;186.114875;,
19.999989;-38.798343;166.114885;,
19.999989;-38.798343;186.114875;,
19.999989;-18.798354;166.114885;,
19.999989;-38.798343;166.114885;,
19.999989;-18.798354;186.114875;,
46.597370;41.526676;151.534142;,
27.975930;30.206251;169.564368;,
26.655499;40.206245;152.294274;,
47.917801;31.526681;168.804236;,
35.754536;-19.791113;140.510525;,
41.250026;-5.647555;116.640911;,
24.640074;-11.791079;125.934251;,
52.364488;-13.647589;131.217184;,
47.917801;31.526681;168.804236;,
46.597370;41.526676;151.534142;,
52.364488;-13.647589;131.217184;,
47.917801;31.526681;168.804236;,
52.364488;-13.647589;131.217184;,
35.754536;-19.791113;140.510525;,
46.597370;41.526676;151.534142;,
26.655499;40.206245;152.294274;,
52.364488;-13.647589;131.217184;,
47.917801;31.526681;168.804236;,
24.640074;-11.791079;125.934251;,
27.975930;30.206251;169.564368;,
26.655499;40.206245;152.294274;,
41.250026;-5.647555;116.640911;,
52.364488;-13.647589;131.217184;,
26.655499;40.206245;152.294274;,
24.640074;-11.791079;125.934251;,
41.250026;-5.647555;116.640911;,
27.975930;30.206251;169.564368;,
24.640074;-11.791079;125.934251;,
26.655499;40.206245;152.294274;,
47.917801;31.526681;168.804236;,
35.754536;-19.791113;140.510525;,
24.640074;-11.791079;125.934251;,
2.213330;-0.931438;77.670752;,
-15.107169;9.068556;57.670763;,
-15.107169;9.068556;77.670752;,
2.213330;-0.931438;57.670763;,
2.213330;-0.931438;77.670752;,
31.938314;50.553744;57.670763;,
2.213330;-0.931438;57.670763;,
31.938314;50.553744;77.670752;,
31.938314;50.553744;57.670763;,
14.617815;60.553739;77.670752;,
14.617815;60.553739;57.670763;,
31.938314;50.553744;77.670752;,
31.938314;50.553744;57.670763;,
-15.107169;9.068556;57.670763;,
2.213330;-0.931438;57.670763;,
14.617815;60.553739;57.670763;,
-15.107169;9.068556;77.670752;,
31.938314;50.553744;77.670752;,
2.213330;-0.931438;77.670752;,
14.617815;60.553739;77.670752;,
14.617815;60.553739;77.670752;,
-15.107169;9.068556;57.670763;,
14.617815;60.553739;57.670763;,
-15.107169;9.068556;77.670752;,
-41.280264;50.435688;245.743009;,
-51.280258;33.115189;225.743019;,
-41.280264;50.435688;225.743019;,
-51.280258;33.115189;245.743009;,
45.772563;0.175715;225.743019;,
-51.280258;33.115189;225.743019;,
35.772568;-17.144784;225.743019;,
-41.280264;50.435688;225.743019;,
35.772568;-17.144784;245.743009;,
45.772563;0.175715;225.743019;,
35.772568;-17.144784;225.743019;,
45.772563;0.175715;245.743009;,
-51.280258;33.115189;245.743009;,
45.772563;0.175715;245.743009;,
35.772568;-17.144784;245.743009;,
-41.280264;50.435688;245.743009;,
35.772568;-17.144784;245.743009;,
-51.280258;33.115189;225.743019;,
-51.280258;33.115189;245.743009;,
35.772568;-17.144784;225.743019;,
45.772563;0.175715;225.743019;,
-41.280264;50.435688;245.743009;,
-41.280264;50.435688;225.743019;,
45.772563;0.175715;245.743009;;
108;
3;2,1,0,
3;3,0,1,
3;6,5,4,
3;7,4,5,
3;10,9,8,
3;11,8,9,
3;14,13,12,
3;15,12,13,
3;18,17,16,
3;19,16,17,
3;22,21,20,
3;23,20,21,
3;26,25,24,
3;27,24,25,
3;30,29,28,
3;31,28,29,
3;34,33,32,
3;35,32,33,
3;38,37,36,
3;39,36,37,
3;42,41,40,
3;43,40,41,
3;46,45,44,
3;47,44,45,
3;50,49,48,
3;51,48,49,
3;54,53,52,
3;55,52,53,
3;58,57,56,
3;59,56,57,
3;62,61,60,
3;63,60,61,
3;66,65,64,
3;67,64,65,
3;70,69,68,
3;71,68,69,
3;74,73,72,
3;75,72,73,
3;78,77,76,
3;79,76,77,
3;82,81,80,
3;83,80,81,
3;86,85,84,
3;87,84,85,
3;90,89,88,
3;91,88,89,
3;94,93,92,
3;95,92,93,
3;98,97,96,
3;99,96,97,
3;102,101,100,
3;103,100,101,
3;106,105,104,
3;107,104,105,
3;110,109,108,
3;111,108,109,
3;114,113,112,
3;115,112,113,
3;118,117,116,
3;119,116,117,
3;122,121,120,
3;123,120,121,
3;126,125,124,
3;127,124,125,
3;130,129,128,
3;131,128,129,
3;134,133,132,
3;135,132,133,
3;138,137,136,
3;139,136,137,
3;142,141,140,
3;143,140,141,
3;146,145,144,
3;147,144,145,
3;150,149,148,
3;151,148,149,
3;154,153,152,
3;157,156,155,
3;160,159,158,
3;163,162,161,
3;166,165,164,
3;169,168,167,
3;172,171,170,
3;175,174,173,
3;178,177,176,
3;179,176,177,
3;182,181,180,
3;183,180,181,
3;186,185,184,
3;187,184,185,
3;190,189,188,
3;191,188,189,
3;194,193,192,
3;195,192,193,
3;198,197,196,
3;199,196,197,
3;202,201,200,
3;203,200,201,
3;206,205,204,
3;207,204,205,
3;210,209,208,
3;211,208,209,
3;214,213,212,
3;215,212,213,
3;218,217,216,
3;219,216,217,
3;222,221,220,
3;223,220,221;;
MeshNormals {
224;
-1.000000;0.000000;0.000000;
-1.000000;0.000000;0.000000;
-1.000000;0.000000;0.000000;
-1.000000;0.000000;0.000000;
-0.000000;-0.000000;-1.000000;
-0.000000;-0.000000;-1.000000;
-0.000000;-0.000000;-1.000000;
-0.000000;-0.000000;-1.000000;
0.000000;1.000000;0.000000;
0.000000;1.000000;0.000000;
0.000000;1.000000;0.000000;
0.000000;1.000000;0.000000;
0.000000;0.000000;1.000000;
0.000000;0.000000;1.000000;
0.000000;0.000000;1.000000;
0.000000;0.000000;1.000000;
0.000000;-1.000000;0.000000;
0.000000;-1.000000;0.000000;
0.000000;-1.000000;0.000000;
0.000000;-1.000000;0.000000;
1.000000;0.000000;0.000000;
1.000000;0.000000;0.000000;
1.000000;0.000000;0.000000;
1.000000;0.000000;0.000000;
0.000000;0.000000;-1.000000;
0.000000;0.000000;-1.000000;
0.000000;0.000000;-1.000000;
0.000000;0.000000;-1.000000;
-0.000000;-1.000000;0.000000;
-0.000000;-1.000000;0.000000;
-0.000000;-1.000000;0.000000;
-0.000000;-1.000000;0.000000;
0.000000;0.000000;1.000000;
0.000000;0.000000;1.000000;
0.000000;0.000000;1.000000;
0.000000;0.000000;1.000000;
0.000000;1.000000;0.000000;
0.000000;1.000000;0.000000;
0.000000;1.000000;0.000000;
0.000000;1.000000;0.000000;
-1.000000;0.000000;0.000000;
-1.000000;0.000000;0.000000;
-1.000000;0.000000;0.000000;
-1.000000;0.000000;0.000000;
1.000000;-0.000000;0.000000;
1.000000;-0.000000;0.000000;
1.000000;-0.000000;0.000000;
1.000000;-0.000000;0.000000;
0.000000;0.000000;1.000000;
0.000000;0.000000;1.000000;
0.000000;0.000000;1.000000;
0.000000;0.000000;1.000000;
-1.000000;0.000000;0.000000;
-1.000000;0.000000;0.000000;
-1.000000;0.000000;0.000000;
-1.000000;0.000000;0.000000;
0.000000;-1.000000;0.000000;
0.000000;-1.000000;0.000000;
0.000000;-1.000000;0.000000;
0.000000;-1.000000;0.000000;
0.000000;1.000000;0.000000;
0.000000;1.000000;0.000000;
0.000000;1.000000;0.000000;
0.000000;1.000000;0.000000;
-0.000000;-0.000000;-1.000000;
-0.000000;-0.000000;-1.000000;
-0.000000;-0.000000;-1.000000;
-0.000000;-0.000000;-1.000000;
1.000000;0.000000;0.000000;
1.000000;0.000000;0.000000;
1.000000;0.000000;0.000000;
1.000000;0.000000;0.000000;
0.315504;0.532141;0.785674;
0.315504;0.532141;0.785674;
0.315504;0.532141;0.785674;
0.315504;0.532141;0.785674;
-0.860177;0.509996;0.000000;
-0.860177;0.509996;0.000000;
-0.860177;0.509996;0.000000;
-0.860177;0.509996;0.000000;
-0.315504;-0.532141;-0.785674;
-0.315504;-0.532141;-0.785674;
-0.315504;-0.532141;-0.785674;
-0.315504;-0.532141;-0.785674;
0.000000;0.000000;-1.000000;
0.000000;0.000000;-1.000000;
0.000000;0.000000;-1.000000;
0.000000;0.000000;-1.000000;
0.000000;0.000000;1.000000;
0.000000;0.000000;1.000000;
0.000000;0.000000;1.000000;
0.000000;0.000000;1.000000;
0.860177;-0.509996;0.000000;
0.860177;-0.509996;0.000000;
0.860177;-0.509996;0.000000;
0.860177;-0.509996;0.000000;
-0.000000;-0.000000;-1.000000;
-0.000000;-0.000000;-1.000000;
-0.000000;-0.000000;-1.000000;
-0.000000;-0.000000;-1.000000;
-1.000000;0.000000;0.000000;
-1.000000;0.000000;0.000000;
-1.000000;0.000000;0.000000;
-1.000000;0.000000;0.000000;
0.000000;1.000000;0.000000;
0.000000;1.000000;0.000000;
0.000000;1.000000;0.000000;
0.000000;1.000000;0.000000;
0.000000;0.000000;1.000000;
0.000000;0.000000;1.000000;
0.000000;0.000000;1.000000;
0.000000;0.000000;1.000000;
0.000000;-1.000000;0.000000;
0.000000;-1.000000;0.000000;
0.000000;-1.000000;0.000000;
0.000000;-1.000000;0.000000;
1.000000;0.000000;0.000000;
1.000000;0.000000;0.000000;
1.000000;0.000000;0.000000;
1.000000;0.000000;0.000000;
-0.000000;-0.000000;-1.000000;
-0.000000;-0.000000;-1.000000;
-0.000000;-0.000000;-1.000000;
-0.000000;-0.000000;-1.000000;
-1.000000;0.000000;0.000000;
-1.000000;0.000000;0.000000;
-1.000000;0.000000;0.000000;
-1.000000;0.000000;0.000000;
0.000000;1.000000;0.000000;
0.000000;1.000000;0.000000;
0.000000;1.000000;0.000000;
0.000000;1.000000;0.000000;
0.000000;0.000000;1.000000;
0.000000;0.000000;1.000000;
0.000000;0.000000;1.000000;
0.000000;0.000000;1.000000;
0.000000;-1.000000;0.000000;
0.000000;-1.000000;0.000000;
0.000000;-1.000000;0.000000;
0.000000;-1.000000;0.000000;
1.000000;0.000000;0.000000;
1.000000;0.000000;0.000000;
1.000000;0.000000;0.000000;
1.000000;0.000000;0.000000;
-0.038007;0.863505;0.502906;
-0.038007;0.863505;0.502906;
-0.038007;0.863505;0.502906;
-0.038007;0.863505;0.502906;
0.038007;-0.863505;-0.502906;
0.038007;-0.863505;-0.502906;
0.038007;-0.863505;-0.502906;
0.038007;-0.863505;-0.502906;
0.993988;0.108704;-0.013054;
0.993988;0.108704;-0.013054;
0.993988;0.108704;-0.013054;
0.556348;-0.498432;0.664862;
0.556348;-0.498432;0.664862;
0.556348;-0.498432;0.664862;
-0.058269;0.339593;-0.938766;
-0.058269;0.339593;-0.938766;
-0.058269;0.339593;-0.938766;
0.074010;-0.721305;0.688652;
0.074010;-0.721305;0.688652;
0.074010;-0.721305;0.688652;
0.796164;0.508455;-0.328018;
0.796164;0.508455;-0.328018;
0.796164;0.508455;-0.328018;
-0.555400;0.393039;-0.732838;
-0.555400;0.393039;-0.732838;
-0.555400;0.393039;-0.732838;
-0.997090;-0.000000;0.076235;
-0.997090;-0.000000;0.076235;
-0.997090;-0.000000;0.076235;
-0.819405;-0.115358;0.561487;
-0.819405;-0.115358;0.561487;
-0.819405;-0.115358;0.561487;
-0.500000;-0.866025;0.000000;
-0.500000;-0.866025;0.000000;
-0.500000;-0.866025;0.000000;
-0.500000;-0.866025;0.000000;
0.866025;-0.500000;0.000000;
0.866025;-0.500000;0.000000;
0.866025;-0.500000;0.000000;
0.866025;-0.500000;0.000000;
0.500000;0.866025;0.000000;
0.500000;0.866025;0.000000;
0.500000;0.866025;0.000000;
0.500000;0.866025;0.000000;
0.000000;0.000000;-1.000000;
0.000000;0.000000;-1.000000;
0.000000;0.000000;-1.000000;
0.000000;0.000000;-1.000000;
0.000000;0.000000;1.000000;
0.000000;0.000000;1.000000;
0.000000;0.000000;1.000000;
0.000000;0.000000;1.000000;
-0.866025;0.500000;0.000000;
-0.866025;0.500000;0.000000;
-0.866025;0.500000;0.000000;
-0.866025;0.500000;0.000000;
-0.866025;0.500000;0.000000;
-0.866025;0.500000;0.000000;
-0.866025;0.500000;0.000000;
-0.866025;0.500000;0.000000;
0.000000;0.000000;-1.000000;
0.000000;0.000000;-1.000000;
0.000000;0.000000;-1.000000;
0.000000;0.000000;-1.000000;
0.866025;-0.500000;0.000000;
0.866025;-0.500000;0.000000;
0.866025;-0.500000;0.000000;
0.866025;-0.500000;0.000000;
0.000000;0.000000;1.000000;
0.000000;0.000000;1.000000;
0.000000;0.000000;1.000000;
0.000000;0.000000;1.000000;
-0.500000;-0.866025;0.000000;
-0.500000;-0.866025;0.000000;
-0.500000;-0.866025;0.000000;
-0.500000;-0.866025;0.000000;
0.500000;0.866025;0.000000;
0.500000;0.866025;0.000000;
0.500000;0.866025;0.000000;
0.500000;0.866025;0.000000;;
108;
3;2,1,0;
3;3,0,1;
3;6,5,4;
3;7,4,5;
3;10,9,8;
3;11,8,9;
3;14,13,12;
3;15,12,13;
3;18,17,16;
3;19,16,17;
3;22,21,20;
3;23,20,21;
3;26,25,24;
3;27,24,25;
3;30,29,28;
3;31,28,29;
3;34,33,32;
3;35,32,33;
3;38,37,36;
3;39,36,37;
3;42,41,40;
3;43,40,41;
3;46,45,44;
3;47,44,45;
3;50,49,48;
3;51,48,49;
3;54,53,52;
3;55,52,53;
3;58,57,56;
3;59,56,57;
3;62,61,60;
3;63,60,61;
3;66,65,64;
3;67,64,65;
3;70,69,68;
3;71,68,69;
3;74,73,72;
3;75,72,73;
3;78,77,76;
3;79,76,77;
3;82,81,80;
3;83,80,81;
3;86,85,84;
3;87,84,85;
3;90,89,88;
3;91,88,89;
3;94,93,92;
3;95,92,93;
3;98,97,96;
3;99,96,97;
3;102,101,100;
3;103,100,101;
3;106,105,104;
3;107,104,105;
3;110,109,108;
3;111,108,109;
3;114,113,112;
3;115,112,113;
3;118,117,116;
3;119,116,117;
3;122,121,120;
3;123,120,121;
3;126,125,124;
3;127,124,125;
3;130,129,128;
3;131,128,129;
3;134,133,132;
3;135,132,133;
3;138,137,136;
3;139,136,137;
3;142,141,140;
3;143,140,141;
3;146,145,144;
3;147,144,145;
3;150,149,148;
3;151,148,149;
3;154,153,152;
3;157,156,155;
3;160,159,158;
3;163,162,161;
3;166,165,164;
3;169,168,167;
3;172,171,170;
3;175,174,173;
3;178,177,176;
3;179,176,177;
3;182,181,180;
3;183,180,181;
3;186,185,184;
3;187,184,185;
3;190,189,188;
3;191,188,189;
3;194,193,192;
3;195,192,193;
3;198,197,196;
3;199,196,197;
3;202,201,200;
3;203,200,201;
3;206,205,204;
3;207,204,205;
3;210,209,208;
3;211,208,209;
3;214,213,212;
3;215,212,213;
3;218,217,216;
3;219,216,217;
3;222,221,220;
3;223,220,221;;
}
MeshTextureCoords {
224;
-786.401575,-154.736167;
1.000000,632.665408;
1.000000,-154.736167;
-786.401575,632.665408;
-1265.582183,-154.736167;
-2052.983757,632.665408;
-1265.582183,632.665408;
-2052.983757,-154.736167;
-1265.582183,-0.000000;
-2052.983757,-787.401575;
-2052.983757,-0.000000;
-1265.582183,-787.401575;
2054.983757,-154.736167;
1267.582183,632.665408;
2054.983757,632.665408;
1267.582183,-154.736167;
1267.582183,-787.401575;
2054.983757,-0.000000;
2054.983757,-787.401575;
1267.582183,-0.000000;
788.401575,632.665408;
1.000000,-154.736167;
1.000000,632.665408;
788.401575,-154.736167;
1856.894015,-276.363306;
1069.492440,1569.699686;
1856.894015,1569.699686;
1069.492440,-276.363306;
-1854.894015,-3043.558146;
-1067.492440,-2256.156571;
-1067.492440,-3043.558146;
-1854.894015,-2256.156571;
-1067.492440,1569.699686;
-1854.894015,-276.363306;
-1854.894015,1569.699686;
-1067.492440,-276.363306;
1856.894015,-2256.156571;
1069.492440,-3043.558146;
1069.492440,-2256.156571;
1856.894015,-3043.558146;
-3042.558146,-276.363306;
-2255.156571,1569.699686;
-2255.156571,-276.363306;
-3042.558146,1569.699686;
3044.558146,1569.699686;
2257.156571,-276.363306;
2257.156571,1569.699686;
3044.558146,-276.363306;
2166.682244,-787.401575;
1055.264922,-0.000000;
2166.682244,-0.000000;
1055.264922,-787.401575;
-5471.519730,-787.401575;
-2634.118155,-0.000000;
-2634.118155,-787.401575;
-5471.519730,-0.000000;
1055.264922,-5472.519730;
2166.682244,-2635.118155;
2166.682244,-5472.519730;
1055.264922,-2635.118155;
-1053.264922,-2635.118155;
-2164.682244,-5472.519730;
-2164.682244,-2635.118155;
-1053.264922,-5472.519730;
-1053.264922,-787.401575;
-2164.682244,-0.000000;
-1053.264922,-0.000000;
-2164.682244,-787.401575;
5473.519730,-0.000000;
2636.118155,-787.401575;
2636.118155,-0.000000;
5473.519730,-787.401575;
4950.315782,5815.178696;
3555.109702,5273.512309;
4321.795498,6289.481861;
4183.629986,4799.209144;
-10153.954537,1706.587409;
-9366.552962,1493.988984;
-9366.552962,706.587409;
-10153.954537,2493.988984;
-3925.757320,5767.324292;
-5320.963400,6308.990679;
-4692.443116,6783.293844;
-4554.277604,5293.021127;
-67.227643,780.992469;
-1146.103840,1056.725369;
-468.799292,1458.297018;
-744.532192,379.420821;
1658.099834,1916.902146;
579.223637,1641.169246;
980.795285,2318.473794;
1256.528185,1239.597597;
10155.954537,2493.988984;
9368.552962,706.587409;
9368.552962,1493.988984;
10155.954537,1706.587409;
-325.547163,-787.401575;
-2805.805075,-0.000000;
-325.547163,-0.000000;
-2805.805075,-787.401575;
-12126.590247,-787.401575;
-11339.188672,-0.000000;
-11339.188672,-787.401575;
-12126.590247,-0.000000;
-325.547163,-11340.188672;
-2805.805075,-12127.590247;
-2805.805075,-11340.188672;
-325.547163,-12127.590247;
2807.805075,-787.401575;
327.547163,-0.000000;
2807.805075,-0.000000;
327.547163,-787.401575;
327.547163,-12127.590247;
2807.805075,-11340.188672;
2807.805075,-12127.590247;
327.547163,-11340.188672;
12128.590247,-0.000000;
11341.188672,-787.401575;
11341.188672,-0.000000;
12128.590247,-787.401575;
788.401575,740.093063;
-934.039370,1527.494638;
788.401575,1527.494638;
-934.039370,740.093063;
-7326.361226,740.093063;
-6538.959651,1527.494638;
-6538.959651,740.093063;
-7326.361226,1527.494638;
788.401575,-6539.959651;
-934.039370,-7327.361226;
-934.039370,-6539.959651;
788.401575,-7327.361226;
936.039370,740.093063;
-786.401575,1527.494638;
936.039370,1527.494638;
-786.401575,740.093063;
-786.401575,-7327.361226;
936.039370,-6539.959651;
936.039370,-7327.361226;
-786.401575,-6539.959651;
7328.361226,1527.494638;
6540.959651,740.093063;
6540.959651,1527.494638;
7328.361226,740.093063;
-2277.912836,4193.019475;
-1600.363377,5076.721467;
-1497.287111,4296.095741;
-2380.989102,4973.645201;
1821.537283,5064.622624;
1966.461331,3960.539520;
1341.957755,4440.119048;
2446.040859,4585.043097;
6671.040925,-1038.284611;
5990.491551,-1434.332321;
5193.661582,750.832986;
2819.133467,-4219.889556;
1735.211765,-2168.376641;
2471.527943,-1889.378922;
1462.426585,-3598.439536;
676.967190,-3543.169480;
1738.595650,-1288.977247;
-1164.582289,-5771.317552;
-433.733302,-3309.029885;
-380.766137,-5696.261039;
5944.530917,-2031.003125;
4865.568848,65.492751;
5562.857919,431.264800;
-2784.171120,-3582.824447;
-2220.570533,-1356.514946;
-1478.404039,-1619.555123;
-6739.305295,-1189.223112;
-5016.569855,464.215943;
-6057.395528,-1582.923899;
-6547.616149,-1486.756347;
-5358.038822,547.209040;
-4637.301576,230.130087;
-3056.905289,93.800023;
-2269.503715,-693.601552;
-3056.905289,-693.601552;
-2269.503715,93.800023;
3058.905289,-11.811648;
2271.503715,-2352.362829;
2271.503715,-11.811648;
3058.905289,-2352.362829;
2271.503715,93.800023;
3058.905289,-693.601552;
2271.503715,-693.601552;
3058.905289,93.800023;
1258.414617,-1990.305957;
-593.770740,-357.029963;
88.139027,36.670825;
576.504851,-2384.006744;
595.770740,-357.029963;
-1256.414617,-1990.305957;
-86.139027,36.670825;
-574.504851,-2384.006744;
-3056.905289,-2352.362829;
-2269.503715,-11.811648;
-2269.503715,-2352.362829;
-3056.905289,-11.811648;
-9673.926824,-907.026277;
-8886.525249,-119.624703;
-8886.525249,-907.026277;
-9673.926824,-119.624703;
1803.070375,-6.917914;
-2017.908900,-1303.748305;
1409.369588,674.991852;
-1624.208112,-1985.658072;
9675.926824,-119.624703;
8888.525249,-907.026277;
8888.525249,-119.624703;
9675.926824,-907.026277;
2019.908900,-1303.748305;
-1801.070375,-6.917914;
-1407.369588,674.991852;
1626.208112,-1985.658072;
-9673.926824,1557.179767;
-8886.525249,-2400.300548;
-9673.926824,-2400.300548;
-8886.525249,1557.179767;
8888.525249,1557.179767;
9675.926824,-2400.300548;
8888.525249,-2400.300548;
9675.926824,1557.179767;;
}
MeshMaterialList {
2;
108;
1,
1,
1,
1,
1,
1,
1,
1,
1,
1,
1,
1,
1,
1,
1,
1,
1,
1,
1,
1,
1,
1,
1,
1,
1,
1,
1,
1,
1,
1,
1,
1,
1,
1,
1,
1,
1,
1,
1,
1,
1,
1,
1,
1,
1,
1,
1,
1,
1,
1,
1,
1,
1,
1,
1,
1,
1,
1,
1,
1,
1,
1,
1,
1,
1,
1,
1,
1,
1,
1,
1,
1,
1,
1,
1,
1,
1,
1,
1,
1,
1,
1,
1,
1,
1,
1,
1,
1,
1,
1,
1,
1,
1,
1,
1,
1,
1,
1,
1,
1,
1,
1,
1,
1,
1,
1,
1,
1;
Material {
1.000000;1.000000;1.000000;1.000000;;
50.000000;
0.000000;0.000000;0.000000;;
0.000000;0.000000;0.000000;;
}
Material {
0.098039;0.000000;0.200000;1.000000;;
50.000000;
0.000000;0.000000;0.000000;;
0.000000;0.000000;0.000000;;
}
}
}
}
}
